Feb 29 19:12:39.818 HYPERVISOR: Release 0.2.17-x86/Windows (tag 2017072410)
Feb 29 19:12:39.819 HYPERVISOR: Started on IP = localhost, TCP port = 64717.
Feb 29 19:12:40.305 HYPERVISOR: exec_cmd: hypervisor version 
Feb 29 19:12:40.305 HYPERVISOR: exec_cmd: hypervisor working_dir C:\Users\user\GNS3\projects\Telecom-Gabes\project-files\dynamips 
Feb 29 19:12:40.305 GENERAL: working_dir=C:\Users\user\GNS3\projects\Telecom-Gabes\project-files\dynamips
Feb 29 19:12:40.305 HYPERVISOR: exec_cmd: hypervisor working_dir C:\Users\user\GNS3\projects\Telecom-Gabes\project-files\dynamips\9198a8de-5c57-4e16-b0da-16211f836463 
Feb 29 19:12:40.310 GENERAL: working_dir=C:\Users\user\GNS3\projects\Telecom-Gabes\project-files\dynamips\9198a8de-5c57-4e16-b0da-16211f836463
Feb 29 19:12:40.310 HYPERVISOR: exec_cmd: vm create R3 2 c7200 
Feb 29 19:12:40.313 VM: VM R3 created.
Feb 29 19:12:40.314 HYPERVISOR: exec_cmd: vm set_con_tcp_port R3 5001 
Feb 29 19:12:40.314 HYPERVISOR: exec_cmd: c7200 get_mac_addr R3 
Feb 29 19:12:40.314 HYPERVISOR: exec_cmd: vm get_status R3 
Feb 29 19:12:40.315 HYPERVISOR: exec_cmd: vm slot_add_binding R3 0 0 C7200-IO-FE 
Feb 29 19:12:40.315 HYPERVISOR: exec_cmd: vm set_disk0 R3 0 
Feb 29 19:12:40.316 HYPERVISOR: exec_cmd: vm set_exec_area R3 64 
Feb 29 19:12:40.318 HYPERVISOR: exec_cmd: vm get_status R3 
Feb 29 19:12:40.318 HYPERVISOR: exec_cmd: vm set_idle_pc R3 0x62cc930c 
Feb 29 19:12:40.320 HYPERVISOR: exec_cmd: vm set_ios R3 C:/Users/user/GNS3/images/IOS/c7200-advipservicesk9-mz.152-4.S5.image 
Feb 29 19:12:40.321 HYPERVISOR: exec_cmd: c7200 set_mac_addr R3 ca02.28f4.0000 
Feb 29 19:12:40.322 HYPERVISOR: exec_cmd: vm set_nvram R3 512 
Feb 29 19:12:40.323 HYPERVISOR: exec_cmd: vm set_ram R3 512 
Feb 29 19:12:40.323 HYPERVISOR: exec_cmd: vm get_status R3 
Feb 29 19:12:40.324 HYPERVISOR: exec_cmd: vm slot_add_binding R3 1 0 PA-8T 
Feb 29 19:12:41.807 HYPERVISOR: exec_cmd: nio create_udp udp-3cdb1a83-327d-489b-a7d7-ff0f87362fa4 10010 127.0.0.1 10011 
Feb 29 19:12:42.091 HYPERVISOR: exec_cmd: vm slot_add_nio_binding R3 1 0 udp-3cdb1a83-327d-489b-a7d7-ff0f87362fa4 
Feb 29 19:12:42.094 HYPERVISOR: exec_cmd: vm get_status R3 
Feb 29 19:15:58.233 HYPERVISOR: exec_cmd: vm get_status R3 
Feb 29 19:15:58.234 HYPERVISOR: exec_cmd: vm extract_config R3 
Feb 29 19:15:58.340 HYPERVISOR: exec_cmd: vm get_status R3 
Feb 29 19:15:58.348 HYPERVISOR: exec_cmd: vm extract_config R3 
Feb 29 19:15:58.352 HYPERVISOR: exec_cmd: vm delete R3 
Feb 29 19:15:58.352 VM: VM R3 destroyed.
Feb 29 19:15:58.353 HYPERVISOR: exec_cmd: hypervisor stop 
Feb 29 19:15:58.569 HYPERVISOR: Stopped.
Feb 29 19:15:58.569 GENERAL: reset done.
