Mar 05 23:33:08.100 HYPERVISOR: Release 0.2.17-x86/Windows (tag 2017072410)
Mar 05 23:33:08.102 HYPERVISOR: Started on IP = localhost, TCP port = 62864.
Mar 05 23:33:08.604 HYPERVISOR: exec_cmd: hypervisor version 
Mar 05 23:33:08.604 HYPERVISOR: exec_cmd: hypervisor working_dir C:\Users\user\GNS3\projects\Telecom-MPLS\project-files\dynamips 
Mar 05 23:33:08.605 GENERAL: working_dir=C:\Users\user\GNS3\projects\Telecom-MPLS\project-files\dynamips
Mar 05 23:33:08.605 HYPERVISOR: exec_cmd: hypervisor working_dir C:\Users\user\GNS3\projects\Telecom-MPLS\project-files\dynamips\66120079-2679-4778-9a9d-355d56267cf3 
Mar 05 23:33:08.606 GENERAL: working_dir=C:\Users\user\GNS3\projects\Telecom-MPLS\project-files\dynamips\66120079-2679-4778-9a9d-355d56267cf3
Mar 05 23:33:08.607 HYPERVISOR: exec_cmd: vm create PC2 10 c7200 
Mar 05 23:33:08.609 VM: VM PC2 created.
Mar 05 23:33:08.610 HYPERVISOR: exec_cmd: vm set_con_tcp_port PC2 5010 
Mar 05 23:33:08.610 HYPERVISOR: exec_cmd: c7200 get_mac_addr PC2 
Mar 05 23:33:08.610 HYPERVISOR: exec_cmd: vm get_status PC2 
Mar 05 23:33:08.610 HYPERVISOR: exec_cmd: vm slot_add_binding PC2 0 0 C7200-IO-FE 
Mar 05 23:33:08.611 HYPERVISOR: exec_cmd: vm set_disk0 PC2 0 
Mar 05 23:33:08.612 HYPERVISOR: exec_cmd: vm set_exec_area PC2 64 
Mar 05 23:33:08.613 HYPERVISOR: exec_cmd: vm get_status PC2 
Mar 05 23:33:08.613 HYPERVISOR: exec_cmd: vm set_idle_pc PC2 0x62cc930c 
Mar 05 23:33:08.615 HYPERVISOR: exec_cmd: vm set_ios PC2 C:/Users/user/GNS3/images/IOS/c7200-advipservicesk9-mz.152-4.S5.image 
Mar 05 23:33:08.616 HYPERVISOR: exec_cmd: c7200 set_mac_addr PC2 ca0a.073c.0000 
Mar 05 23:33:08.616 HYPERVISOR: exec_cmd: vm set_nvram PC2 512 
Mar 05 23:33:08.617 HYPERVISOR: exec_cmd: vm set_ram PC2 512 
Mar 05 23:33:14.697 HYPERVISOR: exec_cmd: nio create_udp udp-cea93503-b0db-483f-aa5e-ea8da0ee16d5 10006 127.0.0.1 10007 
Mar 05 23:33:14.981 HYPERVISOR: exec_cmd: vm slot_add_nio_binding PC2 0 0 udp-cea93503-b0db-483f-aa5e-ea8da0ee16d5 
Mar 05 23:33:14.983 HYPERVISOR: exec_cmd: vm get_status PC2 
Mar 05 23:33:41.174 HYPERVISOR: exec_cmd: vm set_ghost_status PC2 2 
Mar 05 23:33:41.175 HYPERVISOR: exec_cmd: vm set_ghost_file PC2 C:\Users\user\GNS3\projects\Telecom-MPLS\project-files\dynamips\c7200-advipservicesk9-mz.152-4.S5.image-512.ghost 
Mar 05 23:33:41.176 HYPERVISOR: exec_cmd: vm get_status PC2 
Mar 05 23:33:41.184 HYPERVISOR: exec_cmd: vm set_config PC2 configs\i10_startup-config.cfg 
Mar 05 23:33:41.184 HYPERVISOR: exec_cmd: vm start PC2 
Mar 06 20:46:14.996 HYPERVISOR: exec_cmd: vm get_status PC2 
Mar 06 20:46:14.997 HYPERVISOR: exec_cmd: vm stop PC2 
Mar 06 20:46:15.404 VM: VM PC2 shutdown.
Mar 06 20:46:15.405 HYPERVISOR: exec_cmd: vm extract_config PC2 
Mar 06 20:46:16.424 HYPERVISOR: exec_cmd: vm get_status PC2 
Mar 06 20:46:16.425 HYPERVISOR: exec_cmd: vm extract_config PC2 
Mar 06 20:46:16.427 HYPERVISOR: exec_cmd: vm delete PC2 
Mar 06 20:46:16.427 VM: VM PC2 destroyed.
Mar 06 20:46:16.428 HYPERVISOR: exec_cmd: hypervisor stop 
Mar 06 20:46:16.879 HYPERVISOR: Stopped.
Mar 06 20:46:16.879 GENERAL: reset done.
